…
Most popular tags:

```r
question_tags %>%
  count(Tag, sort = TRUE)
```

```
## # A tibble: 56,080 × 2
##           Tag       n
##         <chr>   <int>
## 1  javascript 1490887
## 2        java 1436223
## 3         php 1264656
## 4          c# 1230325
## 5     android 1188115
## 6      jquery  947328
## 7      python  753000
## 8        html  706782
## 9         ios  585091
## 10        c++  580429
## # ... with 56,070 more rows
```
…
